module test

go 1.16

require (
	github.com/PuerkitoBio/goquery v1.6.1
	github.com/andybalholm/cascadia v1.2.0 // indirect
	github.com/antchfx/htmlquery v1.2.3 // indirect
	github.com/antchfx/xmlquery v1.3.6 // indirect
	github.com/antchfx/xpath v1.1.11 // indirect
	github.com/davecgh/go-spew v1.1.1 // indirect
	github.com/gobwas/glob v0.2.3 // indirect
	github.com/gocolly/colly v1.2.0
	github.com/golang/groupcache v0.0.0-20210331224755-41bb18bfe9da // indirect
	github.com/golang/protobuf v1.5.2 // indirect
	github.com/kennygrant/sanitize v1.2.4 // indirect
	github.com/saintfish/chardet v0.0.0-20120816061221-3af4cd4741ca // indirect
	github.com/temoto/robotstxt v1.1.2 // indirect
	golang.org/x/net v0.0.0-20210521195947-fe42d452be8f // indirect
	google.golang.org/appengine v1.6.7 // indirect
)
